<?xml version="1.0" encoding="UTF-8"?>
<svg width="132.29mm" height="132.29mm" version="1.1" viewBox="0 0 132.29 132.29" xmlns="http://www.w3.org/2000/svg" xmlns:cc="http://creativecommons.org/ns#" xmlns:dc="http://purl.org/dc/elements/1.1/" xmlns:rdf="http://www.w3.org/1999/02/22-rdf-syntax-ns#">
 <metadata>
  <rdf:RDF>
   <cc:Work rdf:about="">
    <dc:format>image/svg+xml</dc:format>
    <dc:type rdf:resource="http://purl.org/dc/dcmitype/StillImage"/>
    <dc:title/>
   </cc:Work>
  </rdf:RDF>
 </metadata>
 <g transform="translate(37.023 -97.638)">
  <circle id="discogs" cx="29.123" cy="163.78" r="66.146" fill="#409ca5"/>
  <g transform="translate(-169.31 97.638)" fill="#f7c8d4">
   <path transform="scale(.26458)" d="m750.33 199.58c-27.74 0-50.262 22.513-50.262 50.254 0 27.741 22.521 50.262 50.262 50.262 27.741 0 50.26-22.521 50.26-50.262 0-27.741-22.519-50.254-50.26-50.254zm0 2.2812c26.436 0 47.973 21.537 47.973 47.973 2.5e-4 26.435-21.537 47.98-47.973 47.98-26.435 0-47.973-21.545-47.973-47.98 0-26.435 21.538-47.973 47.973-47.973zm0 40.146c-4.2423 0-7.834 3.5834-7.834 7.8262 0 4.2426 3.5916 7.834 7.834 7.834 4.2427 0 7.834-3.5914 7.834-7.834 0-4.2427-3.2649-7.8262-7.834-7.8262z" stroke-width="3.2636"/>
   <path transform="translate(129.49 -166.86)" d="m68.953 186.76c-25.367 0-46.029 20.492-46.285 45.859v0.42578c0 13.05 5.4958 24.834 14.244 33.268l3.9551-4.248c-7.6506-7.4066-12.412-17.662-12.412-29.107 0-22.386 18.198-40.582 40.584-40.582 6.9892 0 13.627 1.8494 19.383 4.9355l2.6973-4.8828c-6.3813-3.5177-13.632-5.5836-21.389-5.668zm-0.08594 6.9941c-10.826 0-20.621 4.3458-27.693 11.502-6.9033 7.0738-11.252 16.873-11.252 27.701 0 10.825 4.4314 20.625 11.506 27.699a0.5176 0.5176 0 0 1 0.06641 0.0781c0.05405 0.0811 0.17692 0.19758 0.26367 0.29492l4.207-4.5742c-6.102-5.9471-9.9102-14.298-9.9102-23.498 0-18.154 14.744-32.898 32.898-32.898 5.6901 0 11.036 1.5034 15.668 3.9844l2.9629-5.4805c-5.526-3.0059-11.911-4.8086-18.717-4.8086zm32.725 6.5469-3.7832 4.0762c7.3097 7.3199 11.814 17.396 11.814 28.58 0 22.386-18.198 40.586-40.584 40.586-6.9007-1e-5 -13.295-1.7682-18.955-4.7676l-2.8574 5.0566c6.4705 3.4375 13.888 5.4961 21.727 5.4961 25.538 0 46.283-20.745 46.283-46.283 0-12.791-5.2416-24.401-13.645-32.744zm-32.467 1.1387c-8.6656 0-16.565 3.5672-22.258 9.2598-5.6926 5.6926-9.2598 13.592-9.2598 22.258 0 8.669 3.4825 16.566 9.2578 22.256a0.5176 0.5176 0 0 1 0.09961 0.13672c0.0095 0.0189 0.04478 0.0456 0.05859 0.0684l4.2285-4.5977c-4.5481-4.5576-7.4258-10.825-7.4258-17.863 0-14.007 11.291-25.299 25.299-25.299 4.3938 0 8.4565 1.161 12.045 3.1172l2.959-5.4766c-4.4861-2.4045-9.5804-3.8594-15.004-3.8594zm27.73 3.9492-4.2344 4.6016c5.7616 5.9337 9.4023 14.023 9.4023 22.967 0 18.154-14.744 32.9-32.898 32.9-5.5147 0-10.694-1.3415-15.24-3.7344l-3.0332 5.4062c5.4294 2.9091 11.639 4.5469 18.273 4.5469 10.828 0 20.625-4.346 27.697-11.504a0.5176 0.5176 0 0 1 2e-3 -2e-3c7.0721-7.0721 11.417-16.869 11.418-27.695v-2e-3c-0.0854-10.68-4.3867-20.422-11.387-27.484zm-27.73 3.6504c-6.5938 0-12.594 2.7031-16.904 7.0137-4.3105 4.3106-7.0137 10.311-7.0137 16.904 0 6.5828 2.6109 12.564 6.9844 16.869l4.1504-4.4512c-3.1873-3.2469-5.0898-7.5824-5.0898-12.416 0-9.8646 8.0085-17.875 17.873-17.875 3.0947 0 5.9447 0.81042 8.4219 2.1641l2.9512-5.3105c-3.3604-1.8643-7.239-2.8984-11.373-2.8984zm22.529 2.0547-4.3125 4.5371c4.2888 4.5459 6.9962 10.63 6.9961 17.326 0 13.923-11.289 25.303-25.299 25.303-4.1323 0-8.016-0.99582-11.439-2.7832l-3.0352 5.4023c4.3879 2.3069 9.3058 3.5996 14.561 3.5996 8.6655 0 16.567-3.5691 22.26-9.2617 5.6912-5.6912 9.2564-13.591 9.2578-22.254v-2e-3c-0.0838-8.477-3.5136-16.206-8.9883-21.867zm-5.2812 5.5508-4.1328 4.4297c2.8279 3.1642 4.5859 7.3446 4.5859 11.883 0 9.8646-8.0062 17.877-17.787 17.877-2.8348 0-5.4394-0.65321-7.8105-1.8359l-2.9492 5.3086c3.2639 1.6262 6.8901 2.5723 10.76 2.5723 6.5937 0 12.594-2.705 16.904-7.0156 4.3106-4.3106 7.0156-10.313 7.0156-16.906 0-6.3168-2.5014-12.039-6.5859-16.312z" stroke-width=".8635"/>
  </g>
 </g>
</svg>
